lucas carmo - Como importar múltiplos csv para o mesmo dataframe
…
library(readr)
library(here)

# Encontrar o caminho para a diretório onde estão os meus arquivos csv
diretorio <- here("posts", "importar-multiplos-csv")

# Cria uma lista dos arquivos csv que estão na diretório indicado 
lista_arquivos <- dir(path = diretorio, pattern = "csv", full.names = TRUE)

df <- read_csv(file = lista_arquivos)

print(df)

# A tibble: 30 × 1
   `linha;nome;sexo;valor`
   <chr>                  
 1 1;Alberto;M;55         
 2 2;Alberto;M;56         
 3 3;Alberto;M;49         
 4 4;Alberto;M;50         
 5 5;Alberto;M;52         
 6 6;Alberto;M;59         
 7 7;Alberto;M;60         
 8 8;Alberto;M;61         
 9 9;Alberto;M;65         
10 10;Alberto;M;70        
# ℹ 20 more rows
…
